{
  "cameraMatrix": [
    1.4961771965026855, 
    0.0, 
    -0.0003077983856201172, 
    0.0, 
    0.0, 
    1.4961771965026855, 
    0.004153788089752197, 
    0.0, 
    0.0, 
    0.0, 
    -1.0000019073486328, 
    -0.002000001957640052, 
    0.0, 
    0.0, 
    1.0, 
    0.0
  ], 
  "head": {
    "rotation": [
      0.982629496793741, 
      -0.1846949763748307, 
      -0.01798529415472544, 
      -0.0018802403328080383
    ], 
    "translation": [
      0.5211942833672687, 
      -4.6924750289463022, 
      -95.571370274975322
    ]
  }, 
  "identity": {
    "weights": [
      1.0, 
      0.0, 
      1.0, 
      0.0, 
      0.0, 
      0.0, 
      0.0, 
      0.0
    ]
  }, 
  "landmarks2d": [
    216.55409214460735, 
    627.4332206143763, 
    215.45303753850035, 
    680.2048681296136, 
    217.59357200173395, 
    722.8433273534507, 
    218.9100054783465, 
    767.0123989933039, 
    226.12277993297215, 
    799.5852432939668, 
    243.08541647387904, 
    825.5778860065075, 
    272.7290421077334, 
    848.962918282554, 
    311.99545711918313, 
    870.2634418723161, 
    359.43233458799443, 
    872.334411391455, 
    408.45951782114105, 
    870.8228249012811, 
    450.5538724476006, 
    849.4367148995684, 
    483.5277620649771, 
    825.8544485728833, 
    504.6716906974667, 
    799.2802417611157, 
    514.1884205512183, 
    766.9362097264587, 
    516.5538398068334, 
    723.1699729935597, 
    519.4634017897741, 
    679.6652924911155, 
    518.2891253922334, 
    626.2028964651637, 
    242.72987568271094, 
    584.2139625353948, 
    264.7098571806699, 
    561.386919020302, 
    289.4253141788492, 
    552.5073358845515, 
    314.9647306774634, 
    553.2514207605745, 
    339.05845373010425, 
    563.9827143486187, 
    386.1724817227813, 
    563.8579934854743, 
    410.90746468520155, 
    552.6279113188077, 
    437.5012504025351, 
    551.5162031160635, 
    463.5735956464017, 
    560.1063555019225, 
    487.55861944354757, 
    582.6601216198753, 
    362.15220920129775, 
    586.5166574501168, 
    361.3564975144329, 
    605.0409702089413, 
    360.6350588570008, 
    622.0917231981128, 
    359.89844934809366, 
    648.5420364401375, 
    333.2756973453366, 
    685.5090885252523, 
    349.1549030704966, 
    687.5367243731004, 
    360.5042403074448, 
    690.1694844109057, 
    372.2512502255745, 
    687.5762869874842, 
    388.700186638961, 
    685.2374352250242, 
    268.31192938359686, 
    611.7193771017384, 
    287.5691745670691, 
    611.090717539036, 
    307.1561700187567, 
    609.5860365147411, 
    323.85307937465177, 
    606.8218633929251, 
    308.11708641060767, 
    610.087411066332, 
    287.0193817026549, 
    611.6703582379479, 
    402.59437025897387, 
    606.3511874601503, 
    420.4439657092873, 
    608.6200585060901, 
    440.2222643716957, 
    610.7332977054651, 
    459.69704535443003, 
    610.9649205499232, 
    440.3207553339242, 
    610.7047741152329, 
    418.83877516858036, 
    609.1737254994703, 
    306.0333366545213, 
    757.852535677238, 
    324.5426453343486, 
    743.2395696428837, 
    343.89099849179274, 
    733.7529762042491, 
    360.2403691017851, 
    733.6339629638866, 
    377.03268360339115, 
    733.7499719243931, 
    397.490276074631, 
    743.0535430698709, 
    416.52946567162456, 
    757.7210164888725, 
    399.10598821659846, 
    759.3954652246874, 
    379.39858918192084, 
    762.2389060663, 
    358.8366661370782, 
    763.2053565396136, 
    338.8980361084922, 
    762.4635671259059, 
    321.01508645295644, 
    759.8081935705316, 
    311.1225019335907, 
    757.2347536258071, 
    344.2041102825071, 
    748.216759083369, 
    360.58845765429595, 
    747.309005386189, 
    377.41968029660904, 
    748.0914295436224, 
    411.8581654167841, 
    756.9778322234201, 
    377.64997953926616, 
    748.3810175817714, 
    359.0446109365545, 
    747.717903599387, 
    341.03183195135034, 
    748.5176115111577
  ], 
  "shapes": {
    "browDown_L": 0.5927326083183289, 
    "browDown_R": 0.590049684047699, 
    "browInnerUp": 0.011356538161635399, 
    "browOuterUp_L": -1.2611686178923354e-44, 
    "browOuterUp_R": -1.2611686178923354e-44, 
    "cheekPuff": 0.06907767057418823, 
    "cheekSquint_L": 0.09019820392131805, 
    "cheekSquint_R": 0.04873207211494446, 
    "eyeBlink_L": 0.9556178450584412, 
    "eyeBlink_R": 0.9553849697113037, 
    "eyeLookDown_L": 0.40388715267181396, 
    "eyeLookDown_R": 0.40181097388267517, 
    "eyeLookIn_L": 1.1995252881258356e-11, 
    "eyeLookIn_R": 0.17064431309700012, 
    "eyeLookOut_L": 0.05651874467730522, 
    "eyeLookOut_R": 6.447054250418195e-31, 
    "eyeLookUp_L": 2.4721906327736788e-30, 
    "eyeLookUp_R": 2.509793662621455e-30, 
    "eyeSquint_L": 0.11856147646903992, 
    "eyeSquint_R": 0.11530736833810806, 
    "eyeWide_L": 7.922452385655752e-36, 
    "eyeWide_R": 7.882752905117392e-36, 
    "jawForward": 0.013793247751891613, 
    "jawLeft": 1.7428238228810787e-37, 
    "jawOpen": 0.014559377916157246, 
    "jawRight": 0.08409526944160461, 
    "mouthClose": 0.007137299049645662, 
    "mouthDimple_L": 0.05814731866121292, 
    "mouthDimple_R": 0.05164884775876999, 
    "mouthFrown_L": 0.27513447403907776, 
    "mouthFrown_R": 0.24963665008544922, 
    "mouthFunnel": 0.061013028025627136, 
    "mouthLeft": 9.787784997239886e-18, 
    "mouthLowerDown_L": 0.025634540244936943, 
    "mouthLowerDown_R": 0.02253725938498974, 
    "mouthPress_L": 0.14270249009132385, 
    "mouthPress_R": 0.12551052868366241, 
    "mouthPucker": 0.041659288108348846, 
    "mouthRight": 0.03107181191444397, 
    "mouthRollLower": 0.06029905006289482, 
    "mouthRollUpper": 0.09717046469449997, 
    "mouthShrugLower": 0.08496895432472229, 
    "mouthShrugUpper": 0.11388401687145233, 
    "mouthSmile_L": -1.2611686178923354e-44, 
    "mouthSmile_R": -1.2611686178923354e-44, 
    "mouthStretch_L": 0.15077067911624908, 
    "mouthStretch_R": 0.13771063089370728, 
    "mouthUpperUp_L": 0.04801081493496895, 
    "mouthUpperUp_R": 0.05111843720078468, 
    "noseSneer_L": 0.1349310278892517, 
    "noseSneer_R": 0.10547236353158951
  }
}